{
	"enable": true,
	"games":
	[
		{
			"name": "Soccer Physics",
			"android_id": "com.pnt.soccerbattle",
			"ios_id": "1116399165",
			"image_portrait": "https://dl.dropboxusercontent.com/u/93410612/soccerphysics_portrait.jpg",
			"image_landscape": "https://dl.dropboxusercontent.com/u/93410612/soccephysics_landscape.jpg"
		},
		{
			"name": "Trampoline Craft",
			"android_id": "com.newlight.trolljump",
			"ios_id": "1071656296",
			"image_portrait": "https://dl.dropboxusercontent.com/u/93410612/trampolinecraft_portrait.jpg",
			"image_landscape": "https://dl.dropboxusercontent.com/u/93410612/trampolinecraft_landscape.jpg"
		},
		{
			"name": "Empire Defense",
			"android_id": "",
			"ios_id": "1067647568",
			"image_portrait": "https://dl.dropboxusercontent.com/u/93410612/empiredefense_portrait.jpg",
			"image_landscape": "https://lh3.googleusercontent.com/np0TCysq2VRhr5lQbCQ-PbV_rk_fP8YO4yjC4r7C8Z7OtfGy6SlC7apNSiPabVSb-ss=w300"
		},
		{
			"name": "Empire Defense",
			"android_id": "",
			"ios_id": "1067647568",
			"image_portrait": "https://dl.dropboxusercontent.com/u/93410612/empiredefense_portrait.jpg",
			"image_landscape": "https://lh3.googleusercontent.com/np0TCysq2VRhr5lQbCQ-PbV_rk_fP8YO4yjC4r7C8Z7OtfGy6SlC7apNSiPabVSb-ss=w300"
		},
		{
			"name": "Empire Defense1",
			"android_id": "",
			"ios_id": "1067647568",
			"image_portrait": "https://dl.dropboxusercontent.com/u/93410612/empiredefense_portrait.jpg",
			"image_landscape": "https://lh3.googleusercontent.com/dxO70LYALfE5-maoG8mUBaf1sQj-Lb0BlLsNn9bwbyjTfQw6c2UUG_Zt2eZiu_EnAs8=w300"
		},
		{
			"name": "Empire Defense2",
			"android_id": "",
			"ios_id": "1067647568",
			"image_portrait": "https://dl.dropboxusercontent.com/u/93410612/empiredefense_portrait.jpg",
			"image_landscape": "http://1hour1game.com/apps/com.onehouronegame.FuturisticBomber3D/icon_465129031.jpg"
		},
		{
			"name": "Empire Defense3",
			"android_id": "",
			"ios_id": "1067647568",
			"image_portrait": "https://dl.dropboxusercontent.com/u/93410612/empiredefense_portrait.jpg",
			"image_landscape": "https://lh3.googleusercontent.com/4lXzpDsiW82ycTTfy6Cp-PIMhfy8xxt5r2j872zn_JDiPGjvqYbtbKw8hDBbLjP5LT4=w300"
		},
		{
			"name": "Empire Defense8",
			"android_id": "",
			"ios_id": "1067647568",
			"image_portrait": "https://dl.dropboxusercontent.com/u/93410612/empiredefense_portrait.jpg",
			"image_landscape": "http://a3.mzstatic.com/us/r30/Purple3/v4/ec/8d/92/ec8d92ce-83dd-ff3c-c478-dbc1e0dd02a9/icon175x175.jpeg"
		}
	]
}